3.4 Autobuilding | The EMU-SDMS Manual
…
Figure 3.5: Screenshot of EMU-webApp displaying the autobuilt hierarchy of the my-first emuDB.

3.4.1 Querying the hierarchical annotations

Having this hierarchical annotation structure now allows us to formulate a query that helps answer the originally stated question: Given an annotated speech database, is the vowel height of the vowel @ (measured by its correlate, the first formant frequency) influenced by whether it appears in a content or function word?. The R code snippet below shows how all the @ vowels in the my-first database are queried.

# query annotation items containing
# the labels @ on the Phonetic level
sl_vowels = query(db_handle, "Phonetic == @")

# show sl_vowels
sl_vowels

## # A tibble: 28 x 16
##    labels start   end db_uuid session bundle start_item_id end_item_id level
##    <chr>  <dbl> <dbl> <chr>   <chr>   <chr>          <int>       <int> <chr>
##  1 @      1506. 1548. 3f9435~ 0000    msajc~           103         103 Phon~
##  2 @      1715. 1741. 3f9435~ 0000    msajc~           107         107 Phon~
##  3 @      1967. 2034. 3f9435~ 0000    msajc~           112         112 Phon~
##  4 @      2303. 2362. 3f9435~ 0000    msajc~           117         117 Phon~
##  5 @      2447. 2506. 3f9435~ 0000    msajc~           119         119 Phon~
##  6 @      1917. 1958. 3f9435~ 0000    msajc~           118         118 Phon~
##  7 @      2022. 2078. 3f9435~ 0000    msajc~           120         120 Phon~
##  8 @      2382. 2431. 3f9435~ 0000    msajc~           126         126 Phon~
##  9 @       330.  380. 3f9435~ 0000    msajc~            91          91 Phon~
## 10 @      1472. 1490. 3f9435~ 0000    msajc~           108         108 Phon~
## # ... with 18 more rows, and 7 more variables: attribute <chr>,
## #   start_item_seq_idx <int>, end_item_seq_idx <int>, type <chr>,
## #   sample_start <int>, sample_end <int>, sample_rate <int>

As the type of word (content vs. function) for each @ vowel is also needed, we can use the requery functionality of the EMU-SDMS (see Chapter 6) to retrieve the word type for each @ vowel. A requery essentially moves through a hierarchical annotation (vertically or horizontally) starting from the segments that are passed into the requery function. The R code below illustrates the usage of the hierarchical requery function, requery_hier(), to retrieve the appropriate annotation items from the Word level.

# hierarchical requery starting from the items in sl_vowels
# and moving up to the "Word" level
sl_word_type = requery_hier(db_handle,
                           seglist = sl_vowels,
                           level = "Word",
                           calcTimes = FALSE)

# show sl_word_type
sl_word_type

## # A tibble: 28 x 16
##    labels start   end db_uuid session bundle start_item_id end_item_id level
##    <chr>  <dbl> <dbl> <chr>   <chr>   <chr>          <int>       <int> <chr>
##  1 F         NA    NA 3f9435~ 0000    msajc~            16          16 Word 
##  2 C         NA    NA 3f9435~ 0000    msajc~            17          17 Word 
##  3 C         NA    NA 3f9435~ 0000    msajc~            17          17 Word 
##  4 C         NA    NA 3f9435~ 0000    msajc~            18          18 Word 
##  5 C         NA    NA 3f9435~ 0000    msajc~            18          18 Word 
##  6 C         NA    NA 3f9435~ 0000    msajc~            19          19 Word 
##  7 C         NA    NA 3f9435~ 0000    msajc~            20          20 Word 
##  8 C         NA    NA 3f9435~ 0000    msajc~            20          20 Word 
##  9 F         NA    NA 3f9435~ 0000    msajc~            13          13 Word 
## 10 F         NA    NA 3f9435~ 0000    msajc~            17          17 Word 
## # ... with 18 more rows, and 7 more variables: attribute <chr>,
## #   start_item_seq_idx <int>, end_item_seq_idx <int>, type <chr>,
## #   sample_start <int>, sample_end <int>, sample_rate <int>
…
