6.2 EQL: The EMU Query Language version 2 | The EMU-SDMS Manual
…
# query all items NOT containing the
# label "H*" on the "Tone" level
query(ae, "Tone != H*")

## # A tibble: 34 x 16
##    labels start   end db_uuid session bundle start_item_id end_item_id level
##    <chr>  <dbl> <dbl> <chr>   <chr>   <chr>          <int>       <int> <chr>
##  1 L-     1107      0 0fc618~ 0000    msajc~           183         183 Tone 
##  2 L-     2543.     0 0fc618~ 0000    msajc~           186         186 Tone 
##  3 L%     2578.     0 0fc618~ 0000    msajc~           187         187 Tone 
##  4 L-     1012.     0 0fc618~ 0000    msajc~           187         187 Tone 
##  5 L-     2459.     0 0fc618~ 0000    msajc~           190         190 Tone 
##  6 L%     2490.     0 0fc618~ 0000    msajc~           191         191 Tone 
##  7 !H*     836.     0 0fc618~ 0000    msajc~           188         188 Tone 
##  8 L-      973.     0 0fc618~ 0000    msajc~           189         189 Tone 
##  9 L-     1558.     0 0fc618~ 0000    msajc~           191         191 Tone 
## 10 !H*    2151.     0 0fc618~ 0000    msajc~           193         193 Tone 
## # ... with 24 more rows, and 7 more variables: attribute <chr>,
## #   start_item_seq_idx <int>, end_item_seq_idx <int>, type <chr>,
## #   sample_start <int>, sample_end <int>, sample_rate <int>

The R code snippet above queries two levels that contain time information: a segment level and an event level. As described in Chapter 4, annotations in the EMU-SDMS may also contain levels that do not contain time information. The R code snippet below shows a query that queries annotation items on a level that does not contain time information (the Syllable level) to show that the result contains deduced time information from the time-bearing sub-level.

# query all annotation items containing
# the label S on the Syllable level
query(ae, "Syllable == S")

## # A tibble: 37 x 16
##    labels start   end db_uuid session bundle start_item_id end_item_id level
##    <chr>  <dbl> <dbl> <chr>   <chr>   <chr>          <int>       <int> <chr>
##  1 S       257.  674. 0fc618~ 0000    msajc~           103         103 Syll~
##  2 S       674.  740. 0fc618~ 0000    msajc~           104         104 Syll~
##  3 S       740. 1289. 0fc618~ 0000    msajc~           105         105 Syll~
##  4 S      1791. 1945. 0fc618~ 0000    msajc~           109         109 Syll~
##  5 S      2034. 2284. 0fc618~ 0000    msajc~           111         111 Syll~
##  6 S       572.  798. 0fc618~ 0000    msajc~           107         107 Syll~
##  7 S       798. 1091. 0fc618~ 0000    msajc~           108         108 Syll~
##  8 S      1222. 1391. 0fc618~ 0000    msajc~           110         110 Syll~
##  9 S      1437. 1515. 0fc618~ 0000    msajc~           112         112 Syll~
## 10 S      1628. 1864. 0fc618~ 0000    msajc~           114         114 Syll~
## # ... with 27 more rows, and 7 more variables: attribute <chr>,
## #   start_item_seq_idx <int>, end_item_seq_idx <int>, type <chr>,
## #   sample_start <int>, sample_end <int>, sample_rate <int>
…
Figure 6.3: Illustration of what is returned by the Start(), Medial() and End() functions depending if they are set to A: TRUE (green) or B: FALSE (orange).

# query all phoneme items that occur
# at the start of a syllable
query(ae, "[Start(Syllable, Phoneme) == TRUE]")

## # A tibble: 83 x 16
##    labels start   end db_uuid session bundle start_item_id end_item_id level
##    <chr>  <dbl> <dbl> <chr>   <chr>   <chr>          <int>       <int> <chr>
##  1 V       187.  257. 0fc618~ 0000    msajc~           114         114 Phon~
##  2 m       257.  340. 0fc618~ 0000    msajc~           115         115 Phon~
##  3 @:      674.  740. 0fc618~ 0000    msajc~           120         120 Phon~
##  4 f       740.  893. 0fc618~ 0000    msajc~           121         121 Phon~
##  5 S      1289. 1420. 0fc618~ 0000    msajc~           126         126 Phon~
##  6 w      1463. 1506. 0fc618~ 0000    msajc~           128         128 Phon~
##  7 k      1634. 1715. 0fc618~ 0000    msajc~           131         131 Phon~
##  8 s      1791. 1893. 0fc618~ 0000    msajc~           134         134 Phon~
##  9 d      1945. 1967. 0fc618~ 0000    msajc~           136         136 Phon~
## 10 b      2034. 2150. 0fc618~ 0000    msajc~           139         139 Phon~
## # ... with 73 more rows, and 7 more variables: attribute <chr>,
## #   start_item_seq_idx <int>, end_item_seq_idx <int>, type <chr>,
## #   sample_start <int>, sample_end <int>, sample_rate <int>
…
########################
# requery_hier()

# query all strong syllables (S)
sl_s = query(ae, "Syllable == S")

# hierarchical requery
requery_hier(ae, 
             seglist = sl_s,
             level = "Phonetic")

## # A tibble: 37 x 16
##    labels start   end db_uuid session bundle start_item_id end_item_id level
##    <chr>  <dbl> <dbl> <chr>   <chr>   <chr>          <int>       <int> <chr>
##  1 m->V-~  257.  674. 0fc618~ 0000    msajc~           148         153 Phon~
##  2 @:      674.  740. 0fc618~ 0000    msajc~           154         154 Phon~
##  3 f->r-~  740. 1289. 0fc618~ 0000    msajc~           155         159 Phon~
##  4 s->I   1791. 1945. 0fc618~ 0000    msajc~           169         170 Phon~
##  5 db->j~ 2034. 2284. 0fc618~ 0000    msajc~           173         175 Phon~
##  6 f->j-~  572.  798. 0fc618~ 0000    msajc~           156         158 Phon~
##  7 t->H-~  798. 1091. 0fc618~ 0000    msajc~           159         162 Phon~
##  8 O->f   1222. 1391. 0fc618~ 0000    msajc~           166         167 Phon~
##  9 E      1437. 1515. 0fc618~ 0000    msajc~           169         169 Phon~
## 10 f->@:  1628. 1864. 0fc618~ 0000    msajc~           172         173 Phon~
## # ... with 27 more rows, and 7 more variables: attribute <chr>,
## #   start_item_seq_idx <int>, end_item_seq_idx <int>, type <chr>,
## #   sample_start <int>, sample_end <int>, sample_rate <int>
…
