5.2 Creating an emuDB | The EMU-SDMS Manual
…
## [1] 7

# add zcr files to emuDB
add_files(dbHandle,
          dir = wavDir,
          fileExtension = "zcr",
          targetSessionName = "fromWavFiles")

# show first few files in emuDB
list_files(dbHandle)

## # A tibble: 21 x 4
##    session    bundle  file         absolute_file_path                           
##    <chr>      <chr>   <chr>        <chr>                                        
##  1 fromWavFi… msajc0… msajc003_an… /tmp/RtmpF7Hyhw/fromScratch_emuDB/fromWavFil…
##  2 fromWavFi… msajc0… msajc003.wav /tmp/RtmpF7Hyhw/fromScratch_emuDB/fromWavFil…
##  3 fromWavFi… msajc0… msajc003.zcr /tmp/RtmpF7Hyhw/fromScratch_emuDB/fromWavFil…
##  4 fromWavFi… msajc0… msajc010_an… /tmp/RtmpF7Hyhw/fromScratch_emuDB/fromWavFil…
##  5 fromWavFi… msajc0… msajc010.wav /tmp/RtmpF7Hyhw/fromScratch_emuDB/fromWavFil…
##  6 fromWavFi… msajc0… msajc010.zcr /tmp/RtmpF7Hyhw/fromScratch_emuDB/fromWavFil…
##  7 fromWavFi… msajc0… msajc012_an… /tmp/RtmpF7Hyhw/fromScratch_emuDB/fromWavFil…
##  8 fromWavFi… msajc0… msajc012.wav /tmp/RtmpF7Hyhw/fromScratch_emuDB/fromWavFil…
##  9 fromWavFi… msajc0… msajc012.zcr /tmp/RtmpF7Hyhw/fromScratch_emuDB/fromWavFil…
## 10 fromWavFi… msajc0… msajc015_an… /tmp/RtmpF7Hyhw/fromScratch_emuDB/fromWavFil…
## # … with 11 more rows
…
