14 Use cases | The EMU-SDMS Manual
…
In this example, the get_trackdata() function uses a formant estimation function called forest() to calculate the formant values in real time. This signal processing function is part of the wrassp package, which is used by the emuR package to perform signal processing duties with the get_trackdata() command (see Chapter 8 for details).

If the resultType parameter is not set the call to get\_trackdata(), an object of the class tibble is returned. The class vector of the td object is displayed in the R code snippet below.

# show class vector of td
class(td)

## [1] "tbl_df"     "tbl"        "data.frame"

# show td
td

## # A tibble: 641 x 24
##    sl_rowIdx labels start   end db_uuid session bundle start_item_id end_item_id
##        <int> <chr>  <dbl> <dbl> <chr>   <chr>   <chr>          <int>       <int>
##  1         1 V       187.  257. 0fc618… 0000    msajc…           147         147
##  2         1 V       187.  257. 0fc618… 0000    msajc…           147         147
##  3         1 V       187.  257. 0fc618… 0000    msajc…           147         147
##  4         1 V       187.  257. 0fc618… 0000    msajc…           147         147
##  5         1 V       187.  257. 0fc618… 0000    msajc…           147         147
##  6         1 V       187.  257. 0fc618… 0000    msajc…           147         147
##  7         1 V       187.  257. 0fc618… 0000    msajc…           147         147
##  8         1 V       187.  257. 0fc618… 0000    msajc…           147         147
##  9         1 V       187.  257. 0fc618… 0000    msajc…           147         147
## 10         1 V       187.  257. 0fc618… 0000    msajc…           147         147
## # … with 631 more rows, and 15 more variables: level <chr>, attribute <chr>,
## #   start_item_seq_idx <int>, end_item_seq_idx <int>, type <chr>,
## #   sample_start <int>, sample_end <int>, sample_rate <int>, times_orig <dbl>,
## #   times_rel <dbl>, times_norm <dbl>, T1 <int>, T2 <int>, T3 <int>, T4 <int>
…
Figure 14.1: F1 by F2 distribution for I, o:, u:, V and *(???).

14.3 What words do the phonetic segments that carry the labels s, z, S or Z in the ae emuDB occur in and what is their phonetic context?

As with the previous use cases, the initial step is to query the database to extract the relevant segments as shown in the R code snippet below.

# query segments
sibil = query(ae, "Phonetic==s|z|S|Z")

# show sibil
sibil

## # A tibble: 32 x 16
##    labels start   end db_uuid session bundle start_item_id end_item_id level
##    <chr>  <dbl> <dbl> <chr>   <chr>   <chr>          <int>       <int> <chr>
##  1 s       483.  567. 0fc618… 0000    msajc…           151         151 Phon…
##  2 z      1196. 1289. 0fc618… 0000    msajc…           159         159 Phon…
##  3 S      1289. 1420. 0fc618… 0000    msajc…           160         160 Phon…
##  4 z      1548. 1634. 0fc618… 0000    msajc…           164         164 Phon…
##  5 s      1791. 1893. 0fc618… 0000    msajc…           169         169 Phon…
##  6 z       476.  572. 0fc618… 0000    msajc…           155         155 Phon…
##  7 z      2078. 2169. 0fc618… 0000    msajc…           178         178 Phon…
##  8 s      2228. 2319. 0fc618… 0000    msajc…           180         180 Phon…
##  9 s      2528. 2754. 0fc618… 0000    msajc…           185         185 Phon…
## 10 S       427.  546. 0fc618… 0000    msajc…           153         153 Phon…
## # … with 22 more rows, and 7 more variables: attribute <chr>,
## #   start_item_seq_idx <int>, end_item_seq_idx <int>, type <chr>,
## #   sample_start <int>, sample_end <int>, sample_rate <int>

The requery_hier() function can now be used to perform a hierarchical requery using the set resulting from the initial query. This requery follows the hierarchical links of the annotations in the database to find the linked annotation items on a different level. The R code snippet below shows how this can achieved.

# perform requery
words = requery_hier(ae, sibil, level = "Word")

# show words
words

## # A tibble: 32 x 16
##    labels start   end db_uuid session bundle start_item_id end_item_id level
##    <chr>  <dbl> <dbl> <chr>   <chr>   <chr>          <int>       <int> <chr>
##  1 C       187.  674. 0fc618… 0000    msajc…             2           2 Word 
##  2 C       740. 1289. 0fc618… 0000    msajc…            30          30 Word 
##  3 F      1289. 1463. 0fc618… 0000    msajc…            43          43 Word 
##  4 F      1463. 1634. 0fc618… 0000    msajc…            52          52 Word 
##  5 C      1634. 2150. 0fc618… 0000    msajc…            61          61 Word 
##  6 F       412.  572. 0fc618… 0000    msajc…            14          14 Word 
##  7 C      1958. 2754. 0fc618… 0000    msajc…            80          80 Word 
##  8 C      1958. 2754. 0fc618… 0000    msajc…            80          80 Word 
##  9 C      1958. 2754. 0fc618… 0000    msajc…            80          80 Word 
## 10 C       380.  745. 0fc618… 0000    msajc…            13          13 Word 
## # … with 22 more rows, and 7 more variables: attribute <chr>,
## #   start_item_seq_idx <int>, end_item_seq_idx <int>, type <chr>,
## #   sample_start <int>, sample_end <int>, sample_rate <int>

As seen in the above R code snippet, the result is not quite what one would expect as it does not contain the orthographic word transcriptions but a classification of the words into content words (C) and function words (F). Calling the summary() function on the emuDBhandle object ae would show that the Words level has multiple attribute definitions indicating that each annotation item in the Words level has multiple parallel labels defined for it. The R code snippet below shows an additional requery that queries the Text attribute definition instead.

# perform requery
words = requery_hier(ae, sibil, level = "Text")

# show words
words

## # A tibble: 32 x 16
##    labels start   end db_uuid session bundle start_item_id end_item_id level
##    <chr>  <dbl> <dbl> <chr>   <chr>   <chr>          <int>       <int> <chr>
##  1 among…  187.  674. 0fc618… 0000    msajc…             2           2 Word 
##  2 frien…  740. 1289. 0fc618… 0000    msajc…            30          30 Word 
##  3 she    1289. 1463. 0fc618… 0000    msajc…            43          43 Word 
##  4 was    1463. 1634. 0fc618… 0000    msajc…            52          52 Word 
##  5 consi… 1634. 2150. 0fc618… 0000    msajc…            61          61 Word 
##  6 is      412.  572. 0fc618… 0000    msajc…            14          14 Word 
##  7 resis… 1958. 2754. 0fc618… 0000    msajc…            80          80 Word 
##  8 resis… 1958. 2754. 0fc618… 0000    msajc…            80          80 Word 
##  9 resis… 1958. 2754. 0fc618… 0000    msajc…            80          80 Word 
## 10 chill   380.  745. 0fc618… 0000    msajc…            13          13 Word 
## # … with 22 more rows, and 7 more variables: attribute <chr>,
## #   start_item_seq_idx <int>, end_item_seq_idx <int>, type <chr>,
## #   sample_start <int>, sample_end <int>, sample_rate <int>

As seen in the above R code snippet, the first segment in sibil occurred in the word amongst, which starts at 187.475 ms and ends at 674.225 ms. It is worth noting that this two-step querying procedure (query() followed by requery_hier()) can also be completed in a single hierarchical query using the dominance operator (^).

As we have answered the first part of the question, the R code snippet below will extract the context to the left of the extracted sibilants by using the requery_seq() function.

# get left context by off setting the 
# annotation items in sibil one unit to the left
leftContext = requery_seq(ae, sibil, offset = -1)

# show leftContext
leftContext

## # A tibble: 32 x 16
##    labels start   end db_uuid session bundle start_item_id end_item_id level
##    <chr>  <dbl> <dbl> <chr>   <chr>   <chr>          <int>       <int> <chr>
##  1 N       427.  483. 0fc618… 0000    msajc…           150         150 Phon…
##  2 n      1032. 1196. 0fc618… 0000    msajc…           158         158 Phon…
##  3 z      1196. 1289. 0fc618… 0000    msajc…           159         159 Phon…
##  4 @      1506. 1548. 0fc618… 0000    msajc…           163         163 Phon…
##  5 n      1741. 1791. 0fc618… 0000    msajc…           168         168 Phon…
##  6 I       412.  476. 0fc618… 0000    msajc…           154         154 Phon…
##  7 @      2022. 2078. 0fc618… 0000    msajc…           177         177 Phon…
##  8 I      2169. 2228. 0fc618… 0000    msajc…           179         179 Phon…
##  9 n      2431. 2528. 0fc618… 0000    msajc…           184         184 Phon…
## 10 t       380.  427. 0fc618… 0000    msajc…           152         152 Phon…
## # … with 22 more rows, and 7 more variables: attribute <chr>,
## #   start_item_seq_idx <int>, end_item_seq_idx <int>, type <chr>,
## #   sample_start <int>, sample_end <int>, sample_rate <int>
…
As can be seen by the error message in the above R code snippet, four of the sibilants occur at the very end of the recording and therefore have no phonetic post-context. The remaining post-contexts can be retrieved by setting the ignoreOutOfBounds argument to TRUE as displayed in the R code snippet below.

rightContext = requery_seq(ae, sibil,
                           offset = 1,
                           ignoreOutOfBounds = TRUE)

## Warning in requery_seq(ae, sibil, offset = 1, ignoreOutOfBounds = TRUE): Found
## missing items in resulting segment list! Replacing missing rows with NA values.

# show rightContext
rightContext

## # A tibble: 32 x 16
##    labels start   end db_uuid session bundle start_item_id end_item_id level
##    <chr>  <dbl> <dbl> <chr>   <chr>   <chr>          <int>       <int> <chr>
##  1 t       567.  597. 0fc618… 0000    msajc…           152         152 Phon…
##  2 S      1289. 1420. 0fc618… 0000    msajc…           160         160 Phon…
##  3 i:     1420. 1463. 0fc618… 0000    msajc…           161         161 Phon…
##  4 k      1634. 1676. 0fc618… 0000    msajc…           165         165 Phon…
##  5 I      1893. 1945. 0fc618… 0000    msajc…           170         170 Phon…
##  6 f       572.  674. 0fc618… 0000    msajc…           156         156 Phon…
##  7 I      2169. 2228. 0fc618… 0000    msajc…           179         179 Phon…
##  8 t      2319. 2345. 0fc618… 0000    msajc…           181         181 Phon…
##  9 <NA>     NA    NA  <NA>    <NA>    <NA>              NA          NA <NA> 
## 10 I       546.  615. 0fc618… 0000    msajc…           154         154 Phon…
## # … with 22 more rows, and 7 more variables: attribute <chr>,
## #   start_item_seq_idx <dbl>, end_item_seq_idx <dbl>, type <chr>,
## #   sample_start <int>, sample_end <int>, sample_rate <int>
…
