21 How to quantify differences between spectra? | The EMU-SDMS Manual
…
However, this will not be enough: we then have a tibble with m+1 observations (dct-coefficients in one column); our goal, however, is to have one column per
DCT coefficient. In order to do so, we will have to convert the long format to the wide format by means of the spread() function. In order to being able to use this function, we have to introduce another column containing the indexical information which value in column DCT is which DCT-coefficient. Quite complicated, uh?

E.g.

# calculate 6 dct coefficients for each token of s or S
sS.dctCoefficients =
  sS.dftlong %>%
  group_by(labels,sl_rowIdx) %>%
  do(data_frame(DCT = emuR::dct(.$track_value,m=5,fit=F))) %>%
  mutate(DCTCOEF = paste0("k",0:(table(sl_rowIdx)-1))) %>%
  tidyr::spread(DCTCOEF, DCT)
sS.dctCoefficients

## # A tibble: 21 x 8
## # Groups:   labels, sl_rowIdx [21]
##    labels sl_rowIdx    k0     k1    k2     k3     k4    k5
##    <chr>      <int> <dbl>  <dbl> <dbl>  <dbl>  <dbl> <dbl>
##  1 s              1  48.9  -4.21 -7.41  0.804  1.04  2.58 
##  2 s              3  49.4 -11.7  -7.73  2.43   2.31  4.28 
##  3 s              4  52.1 -10.3  -5.03  2.54   1.99  2.67 
##  4 s              5  46.7  -9.69 -5.28  3.76   1.16  0.648
##  5 s              8  49.7 -10.0  -5.26  2.43   0.162 1.67 
##  6 s              9  44.0 -12.2  -5.15  0.494  0.611 1.35 
##  7 s             10  48.6 -13.3  -4.32  2.23   1.98  0.738
##  8 s             11  42.4  -9.84 -5.85 -0.190 -0.131 5.35 
##  9 s             13  46.4  -9.95 -7.75 -0.655  0.909 4.43 
## 10 s             15  48.0 -11.1  -7.09  0.728  0.608 2.54 
## # … with 11 more rows
…
