…
```
## [1] 19609.38 19687.50 19765.62 19843.75 19921.88 20000.00
```

However, we don't have to do so, as another function of `emuR` called `convert_wideToLong()` does that for us when we set the parameter `calcFreq` to `TRUE`. As the name of the function suggests, the 257 columns that contain amplitudes will be transformed to 257 observations per frame in one single column:


```r
sS.dftlong = convert_wideToLong(sS.dft,calcFreqs = T)

sS.dftlong
```

```
## # A tibble: 5,397 x 23
##    sl_rowIdx labels start   end db_uuid session bundle start_item_id end_item_id
##        <int> <chr>  <dbl> <dbl> <chr>   <chr>   <chr>          <int>       <int>
##  1         1 s       483.  567. 0fc618… 0000    msajc…           151         151
##  2         1 s       483.  567. 0fc618… 0000    msajc…           151         151
##  3         1 s       483.  567. 0fc618… 0000    msajc…           151         151
##  4         1 s       483.  567. 0fc618… 0000    msajc…           151         151
##  5         1 s       483.  567. 0fc618… 0000    msajc…           151         151
##  6         1 s       483.  567. 0fc618… 0000    msajc…           151         151
##  7         1 s       483.  567. 0fc618… 0000    msajc…           151         151
##  8         1 s       483.  567. 0fc618… 0000    msajc…           151         151
##  9         1 s       483.  567. 0fc618… 0000    msajc…           151         151
## 10         1 s       483.  567. 0fc618… 0000    msajc…           151         151
## # … with 5,387 more rows, and 14 more variables: level <chr>, attribute <chr>,
## #   start_item_seq_idx <int>, end_item_seq_idx <int>, type <chr>,
## #   sample_start <int>, sample_end <int>, sample_rate <int>, times_orig <dbl>,
## #   times_rel <dbl>, times_norm <dbl>, track_name <chr>, track_value <dbl>,
## #   freq <dbl>
```
…
```r
# calculate 6 dct coefficients for each token of s or S
sS.dctCoefficients =
  sS.dftlong %>%
  group_by(labels, sl_rowIdx) %>%
  do(data_frame(DCT = emuR::dct(.$track_value, m = 5, fit = F))) %>%
  mutate(DCTCOEF = paste0("k", 0:(table(sl_rowIdx) - 1))) %>%
  tidyr::spread(DCTCOEF, DCT)

sS.dctCoefficients
```

```
## # A tibble: 21 x 8
## # Groups:   labels, sl_rowIdx [21]
##    labels sl_rowIdx    k0     k1    k2     k3     k4    k5
##    <chr>      <int> <dbl>  <dbl> <dbl>  <dbl>  <dbl> <dbl>
##  1 s              1  48.9  -4.21 -7.41  0.804  1.04  2.58 
##  2 s              3  49.4 -11.7  -7.73  2.43   2.31  4.28 
##  3 s              4  52.1 -10.3  -5.03  2.54   1.99  2.67 
##  4 s              5  46.7  -9.69 -5.28  3.76   1.16  0.648
##  5 s              8  49.7 -10.0  -5.26  2.43   0.162 1.67 
##  6 s              9  44.0 -12.2  -5.15  0.494  0.611 1.35 
##  7 s             10  48.6 -13.3  -4.32  2.23   1.98  0.738
##  8 s             11  42.4  -9.84 -5.85 -0.190 -0.131 5.35 
##  9 s             13  46.4  -9.95 -7.75 -0.655  0.909 4.43 
## 10 s             15  48.0 -11.1  -7.09  0.728  0.608 2.54 
## # … with 11 more rows
```
…
```r
sS.moments =
  sS.dftlong %>%
  group_by(labels,sl_rowIdx) %>%
  do(data_frame(Moments = emuR::moments(.$track_value,.$freq))) %>%
  mutate(Momentnumbers = paste0("Moment",1:(table(sl_rowIdx)))) %>%
  tidyr::spread(Momentnumbers, Moments)

sS.moments
```

```
## # A tibble: 21 x 6
## # Groups:   labels, sl_rowIdx [21]
##    labels sl_rowIdx Moment1  Moment2 Moment3 Moment4
##    <chr>      <int>   <dbl>    <dbl>   <dbl>   <dbl>
##  1 s              1   5238. 7315137.  -0.121  -0.978
##  2 s              3   5660. 6964718.  -0.323  -0.776
##  3 s              4   5544. 7485010.  -0.293  -0.923
##  4 s              5   5569. 7278247.  -0.308  -0.903
##  5 s              8   5557. 7312230.  -0.292  -0.934
##  6 s              9   5790. 6988020.  -0.329  -0.837
##  7 s             10   5770. 7241899.  -0.362  -0.840
##  8 s             11   5653. 7033307.  -0.301  -0.845
##  9 s             13   5606. 6847687.  -0.258  -0.867
## 10 s             15   5653. 6923524.  -0.281  -0.868
## # … with 11 more rows
```
…
```r
sS.moments =
  sS.dftlong %>%
  group_by(labels, sl_rowIdx) %>%
  do(data_frame(Moments = emuR::moments(.$track_value,.$freq, minval = TRUE))) %>%
  mutate(Momentnumbers = paste0("Moment", 1:(table(sl_rowIdx)))) %>%
  tidyr::spread(Momentnumbers, Moments)

sS.moments
```

```
## # A tibble: 21 x 6
## # Groups:   labels, sl_rowIdx [21]
##    labels sl_rowIdx Moment1  Moment2 Moment3 Moment4
##    <chr>      <int>   <dbl>    <dbl>   <dbl>   <dbl>
##  1 s              1   5284. 7092414.  -0.142  -0.925
##  2 s              3   5794. 6568993.  -0.377  -0.631
##  3 s              4   5619. 7312918.  -0.332  -0.857
##  4 s              5   5523. 7392654.  -0.284  -0.941
##  5 s              8   5573. 7270354.  -0.301  -0.921
##  6 s              9   5746. 7099514.  -0.314  -0.868
##  7 s             10   5745. 7297563.  -0.351  -0.860
##  8 s             11   5688. 6938212.  -0.314  -0.816
##  9 s             13   5484. 7217595.  -0.215  -0.955
## 10 s             15   5551. 7211331.  -0.244  -0.941
## # … with 11 more rows
```
…
