…
# get "fm" track data for these segments
# Note that verbose is set to FALSE
# only to avoid a progress bar
# being printed in this document.
ai_td_fm = get_trackdata(ae,
                         seglist = ai_segs,
                         ssffTrackName = "fm",
                         verbose = FALSE)

# show ai_td_fm (F1-F4 in columns T1-T4)
ai_td_fm
```

```
## # A tibble: 183 x 24
##    sl_rowIdx labels start   end db_uuid session bundle start_item_id end_item_id
##        <int> <chr>  <dbl> <dbl> <chr>   <chr>   <chr>          <int>       <int>
##  1         1 ai      863. 1016. 0fc618… 0000    msajc…           161         161
##  2         1 ai      863. 1016. 0fc618… 0000    msajc…           161         161
##  3         1 ai      863. 1016. 0fc618… 0000    msajc…           161         161
##  4         1 ai      863. 1016. 0fc618… 0000    msajc…           161         161
##  5         1 ai      863. 1016. 0fc618… 0000    msajc…           161         161
##  6         1 ai      863. 1016. 0fc618… 0000    msajc…           161         161
##  7         1 ai      863. 1016. 0fc618… 0000    msajc…           161         161
##  8         1 ai      863. 1016. 0fc618… 0000    msajc…           161         161
##  9         1 ai      863. 1016. 0fc618… 0000    msajc…           161         161
## 10         1 ai      863. 1016. 0fc618… 0000    msajc…           161         161
## # … with 173 more rows, and 15 more variables: level <chr>, attribute <chr>,
## #   start_item_seq_idx <int>, end_item_seq_idx <int>, type <chr>,
## #   sample_start <int>, sample_end <int>, sample_rate <int>, times_orig <dbl>,
## #   times_rel <dbl>, times_norm <dbl>, T1 <int>, T2 <int>, T3 <int>, T4 <int>
```
…
```r
# get media file samples
ai_td_mfs = get_trackdata(ae,
                          seglist = ai_segs,
                          ssffTrackName = "MEDIAFILE_SAMPLES",
                          verbose = FALSE)

# ai_td_mfs (sample values in column T1)
ai_td_mfs
```

```
## # A tibble: 18,386 x 21
##    sl_rowIdx labels start   end db_uuid session bundle start_item_id end_item_id
##        <int> <chr>  <dbl> <dbl> <chr>   <chr>   <chr>          <int>       <int>
##  1         1 ai      863. 1016. 0fc618… 0000    msajc…           161         161
##  2         1 ai      863. 1016. 0fc618… 0000    msajc…           161         161
##  3         1 ai      863. 1016. 0fc618… 0000    msajc…           161         161
##  4         1 ai      863. 1016. 0fc618… 0000    msajc…           161         161
##  5         1 ai      863. 1016. 0fc618… 0000    msajc…           161         161
##  6         1 ai      863. 1016. 0fc618… 0000    msajc…           161         161
##  7         1 ai      863. 1016. 0fc618… 0000    msajc…           161         161
##  8         1 ai      863. 1016. 0fc618… 0000    msajc…           161         161
##  9         1 ai      863. 1016. 0fc618… 0000    msajc…           161         161
## 10         1 ai      863. 1016. 0fc618… 0000    msajc…           161         161
## # … with 18,376 more rows, and 12 more variables: level <chr>, attribute <chr>,
## #   start_item_seq_idx <int>, end_item_seq_idx <int>, type <chr>,
## #   sample_start <int>, sample_end <int>, sample_rate <int>, times_orig <dbl>,
## #   times_rel <dbl>, times_norm <dbl>, T1 <int>
```
…
```r
# extract newly added trackdata
ai_td = get_trackdata(ae,
                      seglist = ai_segs,
                      ssffTrackName = "F0",
                      verbose = FALSE)

# show ai_td (F0 values in column T1)
ai_td
```

```
## # A tibble: 183 x 21
##    sl_rowIdx labels start   end db_uuid session bundle start_item_id end_item_id
##        <int> <chr>  <dbl> <dbl> <chr>   <chr>   <chr>          <int>       <int>
##  1         1 ai      863. 1016. 0fc618… 0000    msajc…           161         161
##  2         1 ai      863. 1016. 0fc618… 0000    msajc…           161         161
##  3         1 ai      863. 1016. 0fc618… 0000    msajc…           161         161
##  4         1 ai      863. 1016. 0fc618… 0000    msajc…           161         161
##  5         1 ai      863. 1016. 0fc618… 0000    msajc…           161         161
##  6         1 ai      863. 1016. 0fc618… 0000    msajc…           161         161
##  7         1 ai      863. 1016. 0fc618… 0000    msajc…           161         161
##  8         1 ai      863. 1016. 0fc618… 0000    msajc…           161         161
##  9         1 ai      863. 1016. 0fc618… 0000    msajc…           161         161
## 10         1 ai      863. 1016. 0fc618… 0000    msajc…           161         161
## # … with 173 more rows, and 12 more variables: level <chr>, attribute <chr>,
## #   start_item_seq_idx <int>, end_item_seq_idx <int>, type <chr>,
## #   sample_start <int>, sample_end <int>, sample_rate <int>, times_orig <dbl>,
## #   times_rel <dbl>, times_norm <dbl>, T1 <dbl>
```
…
```r
ai_td_pit = get_trackdata(ae,
                          seglist = ai_segs,
                          onTheFlyFunctionName = "mhsF0",
                          verbose = FALSE)

# show ai_td_pit (F0 values in column T1)
ai_td_pit
```

```
## # A tibble: 183 x 21
##    sl_rowIdx labels start   end db_uuid session bundle start_item_id end_item_id
##        <int> <chr>  <dbl> <dbl> <chr>   <chr>   <chr>          <int>       <int>
##  1         1 ai      863. 1016. 0fc618… 0000    msajc…           161         161
##  2         1 ai      863. 1016. 0fc618… 0000    msajc…           161         161
##  3         1 ai      863. 1016. 0fc618… 0000    msajc…           161         161
##  4         1 ai      863. 1016. 0fc618… 0000    msajc…           161         161
##  5         1 ai      863. 1016. 0fc618… 0000    msajc…           161         161
##  6         1 ai      863. 1016. 0fc618… 0000    msajc…           161         161
##  7         1 ai      863. 1016. 0fc618… 0000    msajc…           161         161
##  8         1 ai      863. 1016. 0fc618… 0000    msajc…           161         161
##  9         1 ai      863. 1016. 0fc618… 0000    msajc…           161         161
## 10         1 ai      863. 1016. 0fc618… 0000    msajc…           161         161
## # … with 173 more rows, and 12 more variables: level <chr>, attribute <chr>,
## #   start_item_seq_idx <int>, end_item_seq_idx <int>, type <chr>,
## #   sample_start <int>, sample_end <int>, sample_rate <int>, times_orig <dbl>,
## #   times_rel <dbl>, times_norm <dbl>, T1 <dbl>
```
…
```
## [1] "tbl_df"     "tbl"        "data.frame"
```

```r
# show ai_td_pit (F0 values in column T1)
ai_td_pit
```

```
## # A tibble: 183 x 21
##    sl_rowIdx labels start   end db_uuid session bundle start_item_id end_item_id
##        <int> <chr>  <dbl> <dbl> <chr>   <chr>   <chr>          <int>       <int>
##  1         1 ai      863. 1016. 0fc618… 0000    msajc…           161         161
##  2         1 ai      863. 1016. 0fc618… 0000    msajc…           161         161
##  3         1 ai      863. 1016. 0fc618… 0000    msajc…           161         161
##  4         1 ai      863. 1016. 0fc618… 0000    msajc…           161         161
##  5         1 ai      863. 1016. 0fc618… 0000    msajc…           161         161
##  6         1 ai      863. 1016. 0fc618… 0000    msajc…           161         161
##  7         1 ai      863. 1016. 0fc618… 0000    msajc…           161         161
##  8         1 ai      863. 1016. 0fc618… 0000    msajc…           161         161
##  9         1 ai      863. 1016. 0fc618… 0000    msajc…           161         161
## 10         1 ai      863. 1016. 0fc618… 0000    msajc…           161         161
## # … with 173 more rows, and 12 more variables: level <chr>, attribute <chr>,
## #   start_item_seq_idx <int>, end_item_seq_idx <int>, type <chr>,
## #   sample_start <int>, sample_end <int>, sample_rate <int>, times_orig <dbl>,
## #   times_rel <dbl>, times_norm <dbl>, T1 <dbl>
```
…
